dump.vcd
$date
	Wed Feb 13 00:17:15 2019
$end
$version
	ModelSim Version 10.4d
$end
$timescale
	1ps
$end

$scope module mux4_1_4b_bench $end
$var reg 4 ! InA [3:0] $end
$var reg 4 " InB [3:0] $end
$var reg 4 # InC [3:0] $end
$var reg 4 $ InD [3:0] $end
$var reg 2 % S [1:0] $end
$var wire 1 & Out [3] $end
$var wire 1 ' Out [2] $end
$var wire 1 ( Out [1] $end
$var wire 1 ) Out [0] $end
$var wire 1 * Clk $end
$var wire 1 + rst $end
$var wire 1 , err $end

$scope module my_clkrst $end
$var reg 1 - clk $end
$var reg 1 . rst $end
$var wire 1 , err $end
$var integer 32 / cycle_count $end
$upscope $end

$scope module DUT $end
$var parameter 32 0 N $end
$var wire 1 1 InA [3] $end
$var wire 1 2 InA [2] $end
$var wire 1 3 InA [1] $end
$var wire 1 4 InA [0] $end
$var wire 1 5 InB [3] $end
$var wire 1 6 InB [2] $end
$var wire 1 7 InB [1] $end
$var wire 1 8 InB [0] $end
$var wire 1 9 InC [3] $end
$var wire 1 : InC [2] $end
$var wire 1 ; InC [1] $end
$var wire 1 < InC [0] $end
$var wire 1 = InD [3] $end
$var wire 1 > InD [2] $end
$var wire 1 ? InD [1] $end
$var wire 1 @ InD [0] $end
$var wire 1 A S [1] $end
$var wire 1 B S [0] $end
$var wire 1 & Out [3] $end
$var wire 1 ' Out [2] $end
$var wire 1 ( Out [1] $end
$var wire 1 ) Out [0] $end

$scope module bit0 $end
$var wire 1 4 InA $end
$var wire 1 8 InB $end
$var wire 1 < InC $end
$var wire 1 @ InD $end
$var wire 1 A S [1] $end
$var wire 1 B S [0] $end
$var wire 1 ) Out $end
$var wire 1 C wAB $end
$var wire 1 D wCD $end
$var wire 1 E out $end

$scope module mAB $end
$var wire 1 4 InA $end
$var wire 1 8 InB $end
$var wire 1 B S $end
$var wire 1 C Out $end
$var wire 1 F ws_n $end
$var wire 1 G wA $end
$var wire 1 H wB $end
$var wire 1 I out $end

$scope module N1 $end
$var wire 1 B in1 $end
$var wire 1 F out $end
$upscope $end

$scope module NA1 $end
$var wire 1 B in1 $end
$var wire 1 4 in2 $end
$var wire 1 G out $end
$upscope $end

$scope module NA2 $end
$var wire 1 F in1 $end
$var wire 1 8 in2 $end
$var wire 1 H out $end
$upscope $end

$scope module NA3 $end
$var wire 1 G in1 $end
$var wire 1 H in2 $end
$var wire 1 I out $end
$upscope $end
$upscope $end

$scope module mCD $end
$var wire 1 < InA $end
$var wire 1 @ InB $end
$var wire 1 B S $end
$var wire 1 D Out $end
$var wire 1 J ws_n $end
$var wire 1 K wA $end
$var wire 1 L wB $end
$var wire 1 M out $end

$scope module N1 $end
$var wire 1 B in1 $end
$var wire 1 J out $end
$upscope $end

$scope module NA1 $end
$var wire 1 B in1 $end
$var wire 1 < in2 $end
$var wire 1 K out $end
$upscope $end

$scope module NA2 $end
$var wire 1 J in1 $end
$var wire 1 @ in2 $end
$var wire 1 L out $end
$upscope $end

$scope module NA3 $end
$var wire 1 K in1 $end
$var wire 1 L in2 $end
$var wire 1 M out $end
$upscope $end
$upscope $end

$scope module mOUT $end
$var wire 1 C InA $end
$var wire 1 D InB $end
$var wire 1 A S $end
$var wire 1 E Out $end
$var wire 1 N ws_n $end
$var wire 1 O wA $end
$var wire 1 P wB $end
$var wire 1 Q out $end

$scope module N1 $end
$var wire 1 A in1 $end
$var wire 1 N out $end
$upscope $end

$scope module NA1 $end
$var wire 1 A in1 $end
$var wire 1 C in2 $end
$var wire 1 O out $end
$upscope $end

$scope module NA2 $end
$var wire 1 N in1 $end
$var wire 1 D in2 $end
$var wire 1 P out $end
$upscope $end

$scope module NA3 $end
$var wire 1 O in1 $end
$var wire 1 P in2 $end
$var wire 1 Q out $end
$upscope $end
$upscope $end
$upscope $end

$scope module bit1 $end
$var wire 1 3 InA $end
$var wire 1 7 InB $end
$var wire 1 ; InC $end
$var wire 1 ? InD $end
$var wire 1 A S [1] $end
$var wire 1 B S [0] $end
$var wire 1 ( Out $end
$var wire 1 R wAB $end
$var wire 1 S wCD $end
$var wire 1 T out $end

$scope module mAB $end
$var wire 1 3 InA $end
$var wire 1 7 InB $end
$var wire 1 B S $end
$var wire 1 R Out $end
$var wire 1 U ws_n $end
$var wire 1 V wA $end
$var wire 1 W wB $end
$var wire 1 X out $end

$scope module N1 $end
$var wire 1 B in1 $end
$var wire 1 U out $end
$upscope $end

$scope module NA1 $end
$var wire 1 B in1 $end
$var wire 1 3 in2 $end
$var wire 1 V out $end
$upscope $end

$scope module NA2 $end
$var wire 1 U in1 $end
$var wire 1 7 in2 $end
$var wire 1 W out $end
$upscope $end

$scope module NA3 $end
$var wire 1 V in1 $end
$var wire 1 W in2 $end
$var wire 1 X out $end
$upscope $end
$upscope $end

$scope module mCD $end
$var wire 1 ; InA $end
$var wire 1 ? InB $end
$var wire 1 B S $end
$var wire 1 S Out $end
$var wire 1 Y ws_n $end
$var wire 1 Z wA $end
$var wire 1 [ wB $end
$var wire 1 \ out $end

$scope module N1 $end
$var wire 1 B in1 $end
$var wire 1 Y out $end
$upscope $end

$scope module NA1 $end
$var wire 1 B in1 $end
$var wire 1 ; in2 $end
$var wire 1 Z out $end
$upscope $end

$scope module NA2 $end
$var wire 1 Y in1 $end
$var wire 1 ? in2 $end
$var wire 1 [ out $end
$upscope $end

$scope module NA3 $end
$var wire 1 Z in1 $end
$var wire 1 [ in2 $end
$var wire 1 \ out $end
$upscope $end
$upscope $end

$scope module mOUT $end
$var wire 1 R InA $end
$var wire 1 S InB $end
$var wire 1 A S $end
$var wire 1 T Out $end
$var wire 1 ] ws_n $end
$var wire 1 ^ wA $end
$var wire 1 _ wB $end
$var wire 1 ` out $end

$scope module N1 $end
$var wire 1 A in1 $end
$var wire 1 ] out $end
$upscope $end

$scope module NA1 $end
$var wire 1 A in1 $end
$var wire 1 R in2 $end
$var wire 1 ^ out $end
$upscope $end

$scope module NA2 $end
$var wire 1 ] in1 $end
$var wire 1 S in2 $end
$var wire 1 _ out $end
$upscope $end

$scope module NA3 $end
$var wire 1 ^ in1 $end
$var wire 1 _ in2 $end
$var wire 1 ` out $end
$upscope $end
$upscope $end
$upscope $end

$scope module bit2 $end
$var wire 1 2 InA $end
$var wire 1 6 InB $end
$var wire 1 : InC $end
$var wire 1 > InD $end
$var wire 1 A S [1] $end
$var wire 1 B S [0] $end
$var wire 1 ' Out $end
$var wire 1 a wAB $end
$var wire 1 b wCD $end
$var wire 1 c out $end

$scope module mAB $end
$var wire 1 2 InA $end
$var wire 1 6 InB $end
$var wire 1 B S $end
$var wire 1 a Out $end
$var wire 1 d ws_n $end
$var wire 1 e wA $end
$var wire 1 f wB $end
$var wire 1 g out $end

$scope module N1 $end
$var wire 1 B in1 $end
$var wire 1 d out $end
$upscope $end

$scope module NA1 $end
$var wire 1 B in1 $end
$var wire 1 2 in2 $end
$var wire 1 e out $end
$upscope $end

$scope module NA2 $end
$var wire 1 d in1 $end
$var wire 1 6 in2 $end
$var wire 1 f out $end
$upscope $end

$scope module NA3 $end
$var wire 1 e in1 $end
$var wire 1 f in2 $end
$var wire 1 g out $end
$upscope $end
$upscope $end

$scope module mCD $end
$var wire 1 : InA $end
$var wire 1 > InB $end
$var wire 1 B S $end
$var wire 1 b Out $end
$var wire 1 h ws_n $end
$var wire 1 i wA $end
$var wire 1 j wB $end
$var wire 1 k out $end

$scope module N1 $end
$var wire 1 B in1 $end
$var wire 1 h out $end
$upscope $end

$scope module NA1 $end
$var wire 1 B in1 $end
$var wire 1 : in2 $end
$var wire 1 i out $end
$upscope $end

$scope module NA2 $end
$var wire 1 h in1 $end
$var wire 1 > in2 $end
$var wire 1 j out $end
$upscope $end

$scope module NA3 $end
$var wire 1 i in1 $end
$var wire 1 j in2 $end
$var wire 1 k out $end
$upscope $end
$upscope $end

$scope module mOUT $end
$var wire 1 a InA $end
$var wire 1 b InB $end
$var wire 1 A S $end
$var wire 1 c Out $end
$var wire 1 l ws_n $end
$var wire 1 m wA $end
$var wire 1 n wB $end
$var wire 1 o out $end

$scope module N1 $end
$var wire 1 A in1 $end
$var wire 1 l out $end
$upscope $end

$scope module NA1 $end
$var wire 1 A in1 $end
$var wire 1 a in2 $end
$var wire 1 m out $end
$upscope $end

$scope module NA2 $end
$var wire 1 l in1 $end
$var wire 1 b in2 $end
$var wire 1 n out $end
$upscope $end

$scope module NA3 $end
$var wire 1 m in1 $end
$var wire 1 n in2 $end
$var wire 1 o out $end
$upscope $end
$upscope $end
$upscope $end

$scope module bit3 $end
$var wire 1 1 InA $end
$var wire 1 5 InB $end
$var wire 1 9 InC $end
$var wire 1 = InD $end
$var wire 1 A S [1] $end
$var wire 1 B S [0] $end
$var wire 1 & Out $end
$var wire 1 p wAB $end
$var wire 1 q wCD $end
$var wire 1 r out $end

$scope module mAB $end
$var wire 1 1 InA $end
$var wire 1 5 InB $end
$var wire 1 B S $end
$var wire 1 p Out $end
$var wire 1 s ws_n $end
$var wire 1 t wA $end
$var wire 1 u wB $end
$var wire 1 v out $end

$scope module N1 $end
$var wire 1 B in1 $end
$var wire 1 s out $end
$upscope $end

$scope module NA1 $end
$var wire 1 B in1 $end
$var wire 1 1 in2 $end
$var wire 1 t out $end
$upscope $end

$scope module NA2 $end
$var wire 1 s in1 $end
$var wire 1 5 in2 $end
$var wire 1 u out $end
$upscope $end

$scope module NA3 $end
$var wire 1 t in1 $end
$var wire 1 u in2 $end
$var wire 1 v out $end
$upscope $end
$upscope $end

$scope module mCD $end
$var wire 1 9 InA $end
$var wire 1 = InB $end
$var wire 1 B S $end
$var wire 1 q Out $end
$var wire 1 w ws_n $end
$var wire 1 x wA $end
$var wire 1 y wB $end
$var wire 1 z out $end

$scope module N1 $end
$var wire 1 B in1 $end
$var wire 1 w out $end
$upscope $end

$scope module NA1 $end
$var wire 1 B in1 $end
$var wire 1 9 in2 $end
$var wire 1 x out $end
$upscope $end

$scope module NA2 $end
$var wire 1 w in1 $end
$var wire 1 = in2 $end
$var wire 1 y out $end
$upscope $end

$scope module NA3 $end
$var wire 1 x in1 $end
$var wire 1 y in2 $end
$var wire 1 z out $end
$upscope $end
$upscope $end

$scope module mOUT $end
$var wire 1 p InA $end
$var wire 1 q InB $end
$var wire 1 A S $end
$var wire 1 r Out $end
$var wire 1 { ws_n $end
$var wire 1 | wA $end
$var wire 1 } wB $end
$var wire 1 ~ out $end

$scope module N1 $end
$var wire 1 A in1 $end
$var wire 1 { out $end
$upscope $end

$scope module NA1 $end
$var wire 1 A in1 $end
$var wire 1 p in2 $end
$var wire 1 | out $end
$upscope $end

$scope module NA2 $end
$var wire 1 { in1 $end
$var wire 1 q in2 $end
$var wire 1 } out $end
$upscope $end

$scope module NA3 $end
$var wire 1 | in1 $end
$var wire 1 } in2 $end
$var wire 1 ~ out $end
$upscope $end
$upscope $end
$upscope $end
$upscope $end
$upscope $end
$enddefinitions $end
#0
$dumpvars
b100 !
b1 "
b1001 #
b11 $
b1 %
1-
1.
b100 0
b1 /
z)
z(
z'
z&
1*
1+
z,
zC
zD
0F
1G
1H
0I
0J
0K
1L
1M
zE
1N
1O
xP
xQ
zR
zS
0U
1V
1W
0X
0Y
1Z
1[
0\
zT
1]
1^
x_
x`
za
zb
0d
0e
1f
1g
0h
1i
1j
0k
zc
1l
1m
xn
xo
zp
zq
0s
1t
1u
0v
0w
0x
1y
1z
zr
1{
1|
x}
x~
1B
0A
1@
1?
0>
0=
1<
0;
0:
19
18
07
06
05
04
03
12
01
$end
#50
0-
0*
#100
1-
1*
b1101 !
b101 "
b10 #
b1 $
b10 /
0?
0<
1;
09
16
14
11
0t
0G
1x
0Z
1K
0M
1\
0z
1I
1v
#150
0-
0*
#200
1-
1*
b110 !
b1101 "
b1101 #
b1100 $
b11 /
0@
1>
1=
1<
0;
1:
19
15
04
13
01
1t
0V
1G
0x
0i
1Z
0K
1M
0\
1k
1z
0I
1X
0v
#201
0.
0+
#250
0-
0*
#300
1-
1*
b101 "
b1010 #
b101 $
b11 %
b100 /
1A
1@
0=
0<
1;
0:
05
1i
0Z
1K
0N
xO
0]
x^
0l
xm
0{
x|
1}
1n
1_
1P
0M
1\
0k
#350
0-
0*
#400
1-
1*
b10 !
b1111 "
b10 #
b1110 $
b0 %
b101 /
0B
0A
0@
1?
1=
09
17
15
02
1N
1O
1]
1^
1l
1m
1{
1|
1F
1J
1U
1V
1Y
1Z
1d
1e
1h
1s
1w
1x
0z
0y
0u
0j
0g
0f
0\
0[
0X
0W
0H
0~
x}
0o
xn
0`
x_
0Q
xP
xQ
x`
xo
x~
1I
1X
1\
1g
1k
1v
1z
#450
0-
0*
#500
1-
1*
b101 !
b1100 "
b1101 #
b1101 $
b1 %
b110 /
1B
1@
0?
1<
0;
1:
19
08
07
14
03
12
0e
0G
1W
1H
0x
0i
0K
1[
0L
0F
0J
0U
0Y
0d
0h
0s
0w
1y
1u
1j
1f
1L
0\
1M
0X
0v
#550
0-
0*
#600
1-
1*
b11 !
b1010 "
b0 #
b0 $
b10 %
b111 /
0B
1A
0@
0>
0=
0<
0:
09
17
06
13
02
0N
xO
0]
x^
0l
xm
0{
x|
1F
1G
1J
1K
1U
1Y
1d
1e
1h
1i
1s
1w
1x
0z
0u
0k
0g
0W
0M
0I
1}
1n
1_
1P
1X
1v
#650
0-
0*
#700
1-
1*
b1101 !
b110 "
b11 #
b1101 $
b11 %
b1000 /
1B
1@
1>
1=
1<
1;
16
05
03
12
11
0t
0e
1u
0f
0Z
0K
0y
0j
0L
0F
0G
0J
0U
0Y
0d
0h
0s
0w
1y
1j
1f
1W
1L
1I
1M
1\
1g
0X
#750
0-
0*
#800
1-
1*
b1011 !
b101 "
b10 #
b1110 $
b1 %
b1001 /
0A
0@
1?
0<
18
07
13
02
1e
0V
1K
1N
1O
1]
1^
1l
1m
1{
1|
0~
x}
0o
xn
0`
x_
0Q
xP
0M
1X
0g
xQ
x`
xo
x~
#850
0-
0*
#900
1-
1*
b1111 !
b11 "
b1010 #
b1010 $
b0 %
b1010 /
0B
0>
19
17
06
12
1F
1G
1J
1U
1V
1Y
1Z
1d
1h
1s
1t
1w
0y
0v
0\
0[
0X
0W
0I
0H
1I
1X
1\
1z
#950
0-
0*
#1000
1-
1*
b10 !
b1010 "
b1 #
b1000 $
b1011 /
0?
1<
0;
09
08
15
04
02
01
0u
1H
1[
0\
0I
1v
#1050
0-
0*
#1100
1-
1*
b1001 !
b1011 "
b110 #
b110 $
b10 %
b1100 /
1A
1?
1>
0=
0<
1;
1:
18
14
03
11
0H
1y
0j
0[
0N
xO
0]
x^
0l
xm
0{
x|
1}
1n
1_
1P
1\
1k
0z
1I
#1150
0-
0*
#1200
1-
1*
b1100 !
b1010 "
b1011 #
b1 $
b1 %
b1101 /
1B
0A
1@
0?
0>
1<
0:
19
08
04
12
0e
1H
0x
0K
1j
1[
0L
1N
1O
1]
1^
1l
1m
1{
1|
0F
0J
0U
0Y
0Z
0d
0h
0s
0t
0w
1u
1W
1L
0~
x}
0o
xn
0`
x_
0Q
xP
0k
1M
1z
0I
1g
xQ
x`
xo
x~
0X
#1250
0-
0*
#1300
1-
1*
b1111 !
b1011 "
b1010 #
b1110 $
b1110 /
0@
1?
1>
1=
0<
18
14
13
0V
0G
1K
0M
1I
1X
#1350
0-
0*
#1400
1-
1*
b1 !
b1001 "
b10 #
b1100 $
b11 %
b1111 /
1A
0?
09
07
03
02
01
1t
1e
1V
1x
0N
xO
0]
x^
0l
xm
0{
x|
1}
1n
1_
1P
0z
0X
0g
0v
#1450
0-
0*
#1500
1-
1*
b1111 !
b1000 "
b111 #
b1111 $
b0 %
b10000 /
0B
0A
1@
1?
1<
1:
08
13
12
11
1N
1O
1]
1^
1l
1m
1{
1|
1F
1G
1J
1U
1Y
1Z
1d
1h
1s
1w
0y
0u
0j
0\
0[
0L
0I
0~
x}
0o
xn
0`
x_
0Q
xP
xQ
x`
xo
x~
1M
1\
1k
1v
1z
#1550
0-
0*
#1600
1-
1*
b1011 !
b1001 "
b1001 #
b0 $
b11 %
b10001 /
1B
1A
0@
0?
0>
0=
0;
0:
19
18
02
0H
0x
1y
1j
1[
1L
0N
xO
0]
x^
0l
xm
0{
x|
0F
0G
0J
0K
0U
0V
0Y
0d
0h
0s
0t
0w
1u
1X
1H
1}
1n
1_
1P
0\
0k
1I
#1650
0-
0*
#1700
1-
1*
b1 !
b110 "
b1100 #
b10 $
b0 %
b10010 /
0B
0A
1?
0<
1:
08
17
16
05
03
01
1N
1O
1]
1^
1l
1m
1{
1|
1F
1G
1J
1K
1U
1V
1Y
1d
1h
1s
1t
1w
1x
0z
0v
0f
0[
0X
0W
0M
0I
0~
x}
0o
xn
0`
x_
0Q
xP
xQ
x`
xo
x~
1X
1\
1g
#1750
0-
0*
#1800
1-
1*
b111 !
b1101 "
b10 #
b1110 $
b1 %
b10011 /
1B
1>
1=
1;
0:
09
18
07
15
13
12
0e
0V
0u
1W
0H
0Z
0y
0j
0F
0G
0J
0U
0Y
0d
0h
0s
0w
1y
1u
1j
1f
1[
1H
1I
#1850
0-
0*
#1900
1-
1*
b1001 !
b1111 "
b11 #
b101 $
b0 %
b10100 /
0B
1@
0?
0=
1<
17
03
02
11
1F
1G
1J
1U
1V
1Y
1Z
1d
1e
1h
1s
1w
0u
0j
0g
0f
0\
0X
0W
0L
0I
0H
1I
1M
1X
1g
1k
1v
#1950
0-
0*
#2000
1-
1*
b1011 !
b1001 "
b1111 #
b1010 $
b10101 /
0@
1?
0>
1=
1:
19
07
06
13
1f
1W
0y
1j
0[
1L
0M
1\
0k
1z
0X
0g
#2050
0-
0*
#2100
1-
1*
b110 !
b1110 "
b1100 #
b10 %
b10110 /
1A
0<
0;
08
17
16
04
12
01
0f
0W
1H
0N
xO
0]
x^
0l
xm
0{
x|
1}
1n
1_
1P
0I
1X
1g
#2150
0-
0*
#2200
1-
1*
b11 !
b11 "
b1111 #
b11 $
b11 %
b10111 /
1B
1@
0=
1<
1;
18
06
05
14
02
0G
1u
1f
0H
0Z
0K
1y
0L
0F
0J
0U
0V
0Y
0d
0h
0i
0s
0w
0x
1k
1[
1W
1L
1H
1M
0g
0v
1I
#2250
0-
0*
#2300
1-
1*
b100 !
b111 "
b1011 #
b110 $
b10 %
b11000 /
0B
0@
1>
0:
16
04
03
12
1F
1G
1J
1K
1U
1V
1Y
1Z
1d
1h
1i
1s
1w
1x
0z
0k
0j
0f
0\
0[
0X
0W
0M
0I
0H
1I
1X
1\
1g
1k
#2350
0-
0*
#2400
1-
1*
b1001 !
b1101 "
b1010 #
b101 $
b1 %
b11001 /
1B
0A
1@
0?
0<
07
15
14
02
11
0t
0G
0u
1W
1[
0L
1N
1O
1]
1^
1l
1m
1{
1|
0F
0J
0U
0Y
0Z
0d
0h
0s
0w
0x
1z
1u
1j
1f
1L
1H
0~
x}
0o
xn
0`
x_
0Q
xP
0X
1v
xQ
x`
xo
x~
0g
0k
#2450
0-
0*
#2500
1-
1*
b1111 !
b1001 "
b100 #
b0 $
b10 %
b11010 /
0B
1A
0@
0>
0;
1:
09
06
13
12
0N
xO
0]
x^
0l
xm
0{
x|
1F
1G
1J
1U
1Y
1Z
1d
1h
1s
1t
1w
1x
0z
0v
0u
0\
0I
0H
1}
1n
1_
1P
1I
1v
#2550
0-
0*
#2600
1-
1*
b1011 !
b1110 "
b1100 #
b1010 $
b1 %
b11011 /
1B
0A
1?
1=
19
08
17
16
02
0f
0W
1H
0x
0y
0[
1N
1O
1]
1^
1l
1m
1{
1|
0F
0G
0J
0U
0V
0Y
0d
0h
0i
0s
0t
0w
1y
1u
1k
1f
1[
1W
0~
x}
0o
xn
0`
x_
0Q
xP
1z
1X
xQ
x`
xo
x~
#2650
0-
0*
#2700
1-
1*
b11 !
b110 "
b1110 #
b111 $
b10 %
b11100 /
0B
1A
1@
1>
0=
1;
05
01
0N
xO
0]
x^
0l
xm
0{
x|
1F
1G
1J
1U
1V
1Y
1d
1h
1i
1s
1t
1w
1x
0z
0v
0k
0j
0f
0[
0X
0W
0L
0I
1}
1n
1_
1P
1M
1X
1\
1g
1k
#2750
0-
0*
#2800
1-
1*
b110 !
b1000 "
b1001 #
b1000 $
b0 %
b11101 /
0A
0@
0?
0>
1=
1<
0;
0:
07
06
15
04
12
0u
1f
1W
0y
1j
1[
1L
1N
1O
1]
1^
1l
1m
1{
1|
0~
x}
0o
xn
0`
x_
0Q
xP
0M
0\
0k
1z
0X
0g
1v
xQ
x`
xo
x~
#2850
0-
0*
#2900
1-
1*
b11 !
b100 "
b1011 $
b1 %
b11110 /
1B
1@
1?
16
05
14
02
0G
1u
0f
0[
0L
0F
0J
0K
0U
0V
0Y
0d
0h
0s
0w
0x
1y
1f
1[
1X
1L
1M
0v
1I
#2950
0-
0*
#3000
1-
1*
b1001 !
b1101 "
b110 #
b1010 $
b10 %
b11111 /
0B
1A
0@
0<
1;
1:
09
18
15
03
11
0N
xO
0]
x^
0l
xm
0{
x|
1F
1G
1J
1K
1U
1V
1Y
1d
1h
1s
1w
1x
0z
0y
0u
0f
0[
0X
0M
0I
0H
1}
1n
1_
1P
1I
1\
1g
1v
1z
#3050
0-
0*
#3100
1-
1*
b101 !
b110 "
b100 #
b111 $
b1 %
b100000 /
1B
0A
1@
1>
0=
0;
08
17
05
12
01
0e
1u
0W
1H
1y
0j
0L
1N
1O
1]
1^
1l
1m
1{
1|
0F
0G
0J
0U
0Y
0d
0h
0i
0s
0w
1j
1f
1[
1W
1L
0~
x}
0o
xn
0`
x_
0Q
xP
1k
0z
0v
xQ
x`
xo
x~
0\
